Athena               INFO including file "AthenaCommon/Compat.py"
PropertyProxy        INFO Read module info for 1929 configurables from 585 rootmap files
PluginMgr            INFO loaded plugin info for 2674 components
Athena               INFO including file "AthenaCommon/Bootstrap.py"
ApplicationMgr       INFO Successfully loaded modules : AthenaServices
ApplicationMgr       INFO Application Manager Configured successfully
StatusCodeSvc        INFO initialize
Athena               INFO including file "AthenaCommon/Services.py"
Athena               INFO including file "AthenaCommon/Atlas.UnixStandardJob.py"
Athena               INFO including file "StoreGate/StoreGate_jobOptions.py"
ApplicationMgr       INFO Successfully loaded modules : StoreGate, CLIDSvc, GaudiAud
Athena               INFO including file "IOVSvc/IOVSvc.py"
ApplicationMgr       INFO Successfully loaded modules : IOVSvc
Athena               INFO including file "DetDescrCnvSvc/DetStore_joboptions.py"
ApplicationMgr       INFO Successfully loaded modules : DetDescrCnvSvc
Athena               INFO including file "IdDictDetDescrCnv/IdDictDetDescrCnv_joboptions.py"
ApplicationMgr       INFO Successfully loaded modules : IdDictDetDescrCnv
Athena               INFO including file "AthenaPoolTest/LArCellContReader_jobOptionsByLFN.py"
Athena               INFO including file "AthenaPoolCnvSvc/ReadAthenaPool_jobOptions.py"
Athena               INFO including file "AthenaPoolCnvSvc/AthenaPool_jobOptions.py"
ClassIDSvc           INFO Initializing ClassIDSvc - package version CLIDSvc-00-02-12
ClassIDSvc           INFO  getRegistryEntries: read 43 CLIDRegistry entries for module ALL
ClassIDSvc           INFO ClassIDSvc Initialized successfully 
ClassIDSvc           INFO  getRegistryEntries: read 73 CLIDRegistry entries for module EventAthenaPoolPoolCnv
ApplicationMgr       INFO Successfully loaded modules : PoolSvc, AthenaPoolCnvSvc, DBDataModelAthenaPoolPoolCnv, EventAthenaPoolPoolCnv
Athena               INFO including file "AthenaSealSvc/AthenaSealSvc_joboptions.py"
ClassIDSvc           INFO  getRegistryEntries: read 73 CLIDRegistry entries for module AthenaSealSvc
ApplicationMgr       INFO Successfully loaded modules : AthenaSealSvc
['STLRflx', 'DetDescrDict']
Athena               INFO including file "AthenaSealSvc/AthenaSealSvcIgnore_joboptions.py"
Athena               INFO including file "AthenaPoolServices/AthenaRootStreamerSvc_jobOptions.py"
ServiceManager    WARNING Service factory for type AthenaRootStreamerSvc already declared
ClassIDSvc           INFO  getRegistryEntries: read 73 CLIDRegistry entries for module AthenaRootStreamerSvc
ApplicationMgr       INFO Successfully loaded modules : AthenaRootStreamerSvc
Athena               INFO including file "AtlasSealCLHEP/OldCLHEPStreamers_jobOptions.py"
ClassIDSvc           INFO  getRegistryEntries: read 77 CLIDRegistry entries for module EventSelectorAthenaPool
ApplicationMgr       INFO Successfully loaded modules : EventSelectorAthenaPool
Athena               INFO including file "RecExCond/RecExCommon_flags.py"
py:RecExCommon_flags    INFO Executing RecExCommon_flags.py
Athena               INFO including file "AthenaCommon/AthenaCommonFlags.py"
Athena               INFO including file "InDetRecExample/ConfiguredInDetFlags.py"
py:RecExCommon_flags WARNING doAOD False and doWriteAOD True. Only meaningful for AOD->AOD copy 
py:RecExCommon_flags WARNING no AOD objects available, cannot write out tag, switching doWriteTAG=False
py:RecExCommon_flags    INFO TrackRecordFilter alg switched on. 
Athena               INFO including file "RecExCond/AllDet_detDescr.py"
Athena               INFO including file "IOVDbSvc/IOVRecExCommon.py"
Athena            WARNING IOVDbSvc/IOVRecExCommon.py - This file is obselete; conditions DB access should automatically be configured from detector geometry
Athena               INFO including file "IOVDbSvc/CondDBConfig.py"
Athena               INFO including file "IOVDbSvc/IOVDbSvc_jobOptions.py"
ClassIDSvc           INFO  getRegistryEntries: read 82 CLIDRegistry entries for module IOVDbSvc
ApplicationMgr       INFO Successfully loaded modules : IOVDbSvc
Athena               INFO Conditions database access configured for instance OFLP130 using connection type logical and account ATLAS_COOL_READER
Athena               INFO including file "DetDescrDictionary/DetDescrDictionaryDict_joboptions.py"
Athena               INFO including file "AtlasGeoModel/SetGeometryVersion.py"
Athena               INFO including file "AtlasGeoModel/GeoModelInit.py"
Athena               INFO including file "IOVDbSvc/CondDBSetup.py"
Athena            WARNING Additional request to configure conditions DB OFLP130 ignored
Athena               INFO including file "EventInfoMgt/EventInfoMgt_jobOptions.py"
ClassIDSvc           INFO  getRegistryEntries: read 84 CLIDRegistry entries for module EventInfoMgt
ApplicationMgr       INFO Successfully loaded modules : EventInfoMgt
EventInfoMgt jobOptions: Got release version  AtlasOffline-rel_6
Athena               INFO including file "AtlasGeoModel/GeoModelInitStandard.py"
Athena               INFO including file "RDBAccessSvc/RDBAccessSvcPdb_jobOptions.py"
ClassIDSvc           INFO  getRegistryEntries: read 84 CLIDRegistry entries for module RDBAccessSvc
ApplicationMgr       INFO Successfully loaded modules : RDBAccessSvc
ClassIDSvc           INFO  getRegistryEntries: read 84 CLIDRegistry entries for module GeoModelSvc
ApplicationMgr       INFO Successfully loaded modules : GeoModelSvc
Athena               INFO including file "AtlasGeoModel/InDetGeoModel.py"
Athena               INFO including file "AtlasGeoModel/LArGeoModel.py"
Athena               INFO including file "TileIdCnv/TileIdCnv_jobOptions.py"
ClassIDSvc           INFO  getRegistryEntries: read 139 CLIDRegistry entries for module TileIdCnv
ApplicationMgr       INFO Successfully loaded modules : TileIdCnv
Athena               INFO including file "CaloIdCnv/CaloIdCnv_joboptions.py"
Athena               INFO including file "CaloConditions/LArTTCellMap_ATLAS_jobOptions.py"
Athena               INFO including file "CaloCondAthenaPool/CaloTTMap_Pool_Read.py"
ClassIDSvc           INFO  getRegistryEntries: read 279 CLIDRegistry entries for module CaloCondAthenaPoolPoolCnv
ApplicationMgr       INFO Successfully loaded modules : CaloCondAthenaPoolPoolCnv
ApplicationMgr       INFO Successfully loaded modules : 
LArTTCellMap configuration: newFcal=  False DetDescrVersion=  ATLAS-CSC-01-01-00
Athena               INFO including file "CaloTriggerTool/CaloTriggerTool_jobOptions.py"
ClassIDSvc           INFO  getRegistryEntries: read 280 CLIDRegistry entries for module CaloTriggerTool
ApplicationMgr       INFO Successfully loaded modules : CaloTriggerTool
ClassIDSvc           INFO  getRegistryEntries: read 315 CLIDRegistry entries for module CaloIdCnv
ApplicationMgr       INFO Successfully loaded modules : CaloIdCnv
ClassIDSvc           INFO  getRegistryEntries: read 374 CLIDRegistry entries for module LArGeoAlgsNV
ApplicationMgr       INFO Successfully loaded modules : LArGeoAlgsNV
Athena               INFO including file "CaloDetMgrDetDescrCnv/CaloDetMgrDetDescrCnv_joboptions.py"
now executing CaloDetMgrDetDescrCnv_CaloDetDescrCnv
ClassIDSvc           INFO  getRegistryEntries: read 492 CLIDRegistry entries for module CaloDetMgrDetDescrCnv
ApplicationMgr       INFO Successfully loaded modules : CaloDetMgrDetDescrCnv
Athena               INFO including file "AtlasGeoModel/TileGeoModel.py"
Athena               INFO including file "AtlasGeoModel/MuonGeoModel.py"
Athena               INFO including file "AtlasGeoModel/MiscGeoModel.py"
Athena               INFO including file "TileIdCnv/TileIdCnv_jobOptions.py"
Athena               INFO including file "LArDetDescr/LArDetDescr_joboptions.py"
now initializing the LAr readout geometry : standard Atlas flavour
Athena               INFO including file "LArIdCnv/LArIdCnv_joboptions.py"
Athena               INFO including file "LArTools/LArTools_jobOptions.py"
ClassIDSvc           INFO  getRegistryEntries: read 506 CLIDRegistry entries for module LArTools
ApplicationMgr       INFO Successfully loaded modules : LArTools
ClassIDSvc           INFO  getRegistryEntries: read 533 CLIDRegistry entries for module LArIdCnv
ApplicationMgr       INFO Successfully loaded modules : LArIdCnv
Athena               INFO including file "LArConditionsCommon/LArConditionsCommon_MC_jobOptions.py"
Athena               INFO including file "IOVDbSvc/IOVRecExCommon.py"
Athena            WARNING IOVDbSvc/IOVRecExCommon.py - This file is obselete; conditions DB access should automatically be configured from detector geometry
Athena               INFO including file "LArCondAthenaPool/LArCondAthenaPool_joboptions.py"
ClassIDSvc           INFO  getRegistryEntries: read 1964 CLIDRegistry entries for module LArCondAthenaPoolPoolCnv
ApplicationMgr       INFO Successfully loaded modules : LArCondAthenaPoolPoolCnv
Athena               INFO including file "LArRawConditions/LArRawConditionsDict_joboptions.py"
Athena               INFO including file "LArConditionsCommon/LArIdMap_MC_jobOptions.py"
Athena               INFO including file "LArCondAthenaPool/LArCondAthenaPool_joboptions.py"
ApplicationMgr       INFO Successfully loaded modules : 
Athena               INFO including file "LArRawConditions/LArRawConditionsDict_joboptions.py"
ClassIDSvc           INFO  getRegistryEntries: read 2614 CLIDRegistry entries for module CaloTools
ApplicationMgr       INFO Successfully loaded modules : CaloTools
Athena              ERROR inconsistent case used in property name "DLLs" of ApplicationMgr
     ==> After this line, a hack will be executed, attempting to rectify the
     ==> problem just reported. Since this hack may fail, and since it is a
     ==> rather temporary measure hack, this is an ERROR, not a WARNING.
ClassIDSvc           INFO  getRegistryEntries: read 2915 CLIDRegistry entries for module LArCellRec
ApplicationMgr       INFO Successfully loaded modules : LArCellRec
Athena              ERROR inconsistent case used in property name "DLLs" of ApplicationMgr
     ==> After this line, a hack will be executed, attempting to rectify the
     ==> problem just reported. Since this hack may fail, and since it is a
     ==> rather temporary measure hack, this is an ERROR, not a WARNING.
ClassIDSvc           INFO  getRegistryEntries: read 3654 CLIDRegistry entries for module LArCalibUtils
ApplicationMgr       INFO Successfully loaded modules : LArCalibUtils
Athena               INFO including file "TileConditions/TileConditions_jobOptions.py"
ClassIDSvc           INFO  getRegistryEntries: read 3654 CLIDRegistry entries for module TileConditions
ApplicationMgr       INFO Successfully loaded modules : TileConditions
Athena               INFO including file "TileConditions/TileNoiseOn_jobOptions.py"
Athena               INFO including file "BFieldAth/BFieldAth_jobOptions.py"
ClassIDSvc           INFO  getRegistryEntries: read 3654 CLIDRegistry entries for module BFieldAth
ApplicationMgr       INFO Successfully loaded modules : BFieldAth
ClassIDSvc           INFO  getRegistryEntries: read 3803 CLIDRegistry entries for module AthenaPoolTest
ApplicationMgr       INFO Successfully loaded modules : AthenaPoolTest
Athena               INFO including file "EventAthenaPool/EventAthenaPool_joboptions.py"
ApplicationMgr       INFO Successfully loaded modules : 
Athena               INFO including file "CaloAthenaPool/CaloAthenaPool_joboptions.py"
ClassIDSvc           INFO  getRegistryEntries: read 4265 CLIDRegistry entries for module CaloAthenaPoolPoolCnv
ApplicationMgr       INFO Successfully loaded modules : CaloAthenaPoolPoolCnv
Athena               INFO including file "AthenaPoolTest/NoStats_jobOptions.py"
Warning in <TClass::TClass>: no dictionary for class IProxyDict is available
Warning in <TClass::TClass>: no dictionary for class IProxyDict is available
ActiveStoreSvc       INFO Initializing ActiveStoreSvc - package version StoreGate-02-16-07
Athena               INFO including file "AthenaCommon/runbatch.py"
StatusCodeSvc        INFO initialize
DetectorStore        INFO Initializing DetectorStore - package version StoreGate-02-16-07
EventPersistenc...   INFO "CnvServices": ["DetDescrCnvSvc", "AthenaPoolCnvSvc", "AthenaPoolCnvSvc"]
ProxyProviderSvc     INFO Initializing ProxyProviderSvc - package version StoreGate-02-16-07
AthenaPoolCnvSvc     INFO Initializing AthenaPoolCnvSvc - package version AthenaPoolCnvSvc-00-10-02
AthenaSealSvc        INFO loadDictFiller - dictionary filler name:STLRflx
AthenaSealSvc        INFO loadDictFiller - dictionary filler name:DetDescrDict
AthenaSealSvc        INFO loadDictFiller - dictionary filler name:AtlasSealCLHEPDict
AthenaSealSvc        INFO loadDictFiller - dictionary filler name:DetDescrDict
AthenaSealSvc        INFO loadDictFiller - dictionary filler name:CaloTriggerToolDict
AthenaSealSvc        INFO loadDictFiller - dictionary filler name:LArRawConditionsDict
AthenaSealSvc        INFO loadDictFiller - dictionary filler name:LArRawConditionsDict
PoolSvc              INFO POOL ReadCatalog is prfile:poolcond/PoolCat_oflcond.xml
PoolSvc              INFO Resolved path is /afs/cern.ch/atlas/software/builds/nightlies/dev/AtlasCore/rel_6/InstallArea/share/poolcond/PoolCat_oflcond.xml
PoolSvc              INFO No POOL WriteCatalog was specified--using POOL default.
WARNING: $POOL_CATALOG is not defined
using default `xmlcatalog_file:PoolFileCatalog.xml'
AthenaRootStrea...   INFO POOL/ROOT class loader initialized
AthenaRootStrea...   INFO 9 ROOT streamers declared
AthenaRootStrea...   INFO   - Streamer name:CLHEPVec3dStreamer
AthenaRootStrea...   INFO ROOT Streamer for HepVector3D added converter for checksum = 358881035
AthenaRootStrea...   INFO Adopted streamer for class HepVector3D
AthenaRootStrea...   INFO   - Streamer name:CLHEPPoint3dStreamer
AthenaRootStrea...   INFO ROOT Streamer for HepPoint3D added converter for checksum = 1634550480
AthenaRootStrea...   INFO Adopted streamer for class HepPoint3D
AthenaRootStrea...   INFO   - Streamer name:CLHEPRotationStreamer
AthenaRootStrea...   INFO ROOT Streamer for HepRotation added converter for checksum = 4141898558
AthenaRootStrea...   INFO Adopted streamer for class HepRotation
AthenaRootStrea...   INFO   - Streamer name:CLHEPGenMatrixStreamer
AthenaRootStrea...   INFO ROOT Streamer for HepGenMatrix added converter for checksum = 21721098
AthenaRootStrea...   INFO Adopted streamer for class HepGenMatrix
AthenaRootStrea...   INFO   - Streamer name:CLHEPMatrixStreamer
AthenaRootStrea...   INFO ROOT Streamer for HepMatrix added converter for checksum = 3811046672
AthenaRootStrea...   INFO Adopted streamer for class HepMatrix
AthenaRootStrea...   INFO   - Streamer name:CLHEPLorVecStreamer
AthenaRootStrea...   INFO ROOT Streamer for HepLorentzVector added converter for checksum = 3077056266
AthenaRootStrea...   INFO Adopted streamer for class HepLorentzVector
AthenaRootStrea...   INFO   - Streamer name:CLHEPTransform3DStreamer
AthenaRootStrea...   INFO ROOT Streamer for HepTransform3D added converter for checksum = 520750269
AthenaRootStrea...   INFO Adopted streamer for class HepTransform3D
AthenaRootStrea...   INFO   - Streamer name:CLHEP3VectorStreamer
AthenaRootStrea...   INFO ROOT Streamer for Hep3Vector added converter for checksum = 760000369
AthenaRootStrea...   INFO Adopted streamer for class Hep3Vector
AthenaRootStrea...   INFO   - Streamer name:CLHEPBasicVectorStreamer
AthenaRootStrea...   INFO ROOT Streamer for BasicVector3D added converter for checksum = 2681080162
AthenaRootStrea...   INFO Adopted streamer for class BasicVector3D
ChronoStatSvc        INFO  Number of skipped events for MemStat-1
AthenaPoolCnvSvc     INFO Loading POOL XMLAuthenticationService.
EventSelector        INFO Create PoolCollectionConverter -  CollectionType: ImplicitROOT Connection:  InputCollection: LFN:MySimplePoolFile1
Error in <TFile::TFile>: file SimplePoolFile1.root does not exist
SimplePoolFile1.root    Error You cannot open a ROOT file in mode READ if it does not exists. 
  StorageSvc    Error Cannot connect to Database: FID=7A6D9C3E-1690-DB11-9864-003048836897 PFN=SimplePoolFile1.root
ERROR (poolDb): 
POOL> Unknown storage type requested:
ImplicitCollection  Warning Cannot find persistency storage type. Trying ROOT_StorageType
Error in <TFile::TFile>: file SimplePoolFile1.root does not exist
SimplePoolFile1.root    Error You cannot open a ROOT file in mode READ if it does not exists. 
  StorageSvc    Error Cannot connect to Database: FID=7A6D9C3E-1690-DB11-9864-003048836897 PFN=SimplePoolFile1.root
EventSelector       ERROR St9exception
ServiceManager    WARNING Unable to initialize service "EventSelector" No service returned
free(): invalid pointer 0xb66de58c!
ProxyProviderSvc    ERROR ServiceLocatorHelper::createService: can not create service EventSelector of type EventSelector
ProxyProviderSvc    ERROR  getting Address Provider EventSelector
ProxyProviderSv...  FATAL  Exception with tag=ProxyProviderSvc::providerNamesPropertyHandle is caught 
ProxyProviderSv...  ERROR ProxyProviderSvc::providerNamesPropertyHandle	Failed to locate address provider	 StatusCode=FAILURE
ServiceManager    WARNING Unable to initialize service "ProxyProviderSvc" No service returned
DetectorStore       ERROR ServiceLocatorHelper::createService: can not create service ProxyProviderSvc
DetectorStore       ERROR Could not get pointer to ProxyProvider Service
ServiceManager      ERROR Unable to initialize Service: DetectorStore
ApplicationMgr      FATAL finalize: Invalid state "Configured"
ApplicationMgr       INFO Application Manager Terminated successfully
